module aigen

go 1.18

require (
	fyne.io/fyne/v2 v2.4.5
	github.com/atotto/clipboard v0.1.4
	github.com/gen2brain/malgo v0.11.10
	github.com/go-sql-driver/mysql v1.7.0
	github.com/hajimehoshi/go-mp3 v0.3.4
	github.com/mattn/go-sqlite3 v1.14.16
	github.com/sashabaranov/go-openai v1.5.2
	github.com/youpy/go-wav v0.3.0
	github.com/zenwerk/go-wave v0.0.0-20230421164623-20cf3f50c337
)

require (
	fyne.io/systray v1.10.1-0.20231115130155-104f5ef7839e // indirect
	github.com/davecgh/go-spew v1.1.1 // indirect
	github.com/fredbi/uri v1.0.0 // indirect
	github.com/fsnotify/fsnotify v1.6.0 // indirect
	github.com/fyne-io/gl-js v0.0.0-20230506162202-1fdaa286a934 // indirect
	github.com/fyne-io/glfw-js v0.0.0-20220517201726-bebc2019cd33 // indirect
	github.com/fyne-io/image v0.0.0-20230811065323-ed435dc8bca6 // indirect
	github.com/go-gl/gl v0.0.0-20211210172815-726fda9656d6 // indirect
	github.com/go-gl/glfw/v3.3/glfw v0.0.0-20240306074159-ea2d69986ecb // indirect
	github.com/go-text/render v0.1.0 // indirect
	github.com/go-text/typesetting v0.1.0 // indirect
	github.com/godbus/dbus/v5 v5.1.0 // indirect
	github.com/google/go-cmp v0.5.9 // indirect
	github.com/gopherjs/gopherjs v1.17.2 // indirect
	github.com/jsummers/gobmp v0.0.0-20230614200233-a9de23ed2e25 // indirect
	github.com/pmezard/go-difflib v1.0.0 // indirect
	github.com/srwiley/oksvg v0.0.0-20221011165216-be6e8873101c // indirect
	github.com/srwiley/rasterx v0.0.0-20220730225603-2ab79fcdd4ef // indirect
	github.com/stretchr/testify v1.8.4 // indirect
	github.com/tevino/abool v1.2.0 // indirect
	github.com/youpy/go-riff v0.1.0 // indirect
	github.com/yuin/goldmark v1.5.5 // indirect
	github.com/zaf/g711 v0.0.0-20190814101024-76a4a538f52b // indirect
	golang.org/x/image v0.11.0 // indirect
	golang.org/x/mobile v0.0.0-20230531173138-3c911d8e3eda // indirect
	golang.org/x/net v0.23.0 // indirect
	golang.org/x/sys v0.18.0 // indirect
	golang.org/x/text v0.14.0 // indirect
	gopkg.in/yaml.v3 v3.0.1 // indirect
	honnef.co/go/js/dom v0.0.0-20210725211120-f030747120f2 // indirect
)
